module github.com/snippetbox

go 1.15

require (
	github.com/bmizerany/pat v0.0.0-20170815010413-6226ea591a40
	github.com/go-sql-driver/mysql v1.5.0
	github.com/golangcollege/sessions v1.2.0
	github.com/justinas/alice v1.2.0
	github.com/justinas/nosurf v1.1.1
	golang.org/x/crypto v0.0.0-20200317142112-1b76d66859c6
)
